<svg width="22" height="16" viewBox="0 0 22 16" fill="none" xmlns="http://www.w3.org/2000/svg">
<path d="M1.83333 9.05759H20.1667C20.7573 9.05759 21.25 8.59113 21.25 7.9999C21.25 7.40868 20.7573 6.94221 20.1667 6.94221H1.83333C1.24268 6.94221 0.75 7.40868 0.75 7.9999C0.75 8.59113 1.24268 9.05759 1.83333 9.05759ZM1.83333 2.86539H20.1667C20.7573 2.86539 21.25 2.39892 21.25 1.80769C21.25 1.21647 20.7573 0.75 20.1667 0.75H1.83333C1.24268 0.75 0.75 1.21647 0.75 1.80769C0.75 2.39892 1.24268 2.86539 1.83333 2.86539ZM1.83333 15.25H20.1667C20.7573 15.25 21.25 14.7835 21.25 14.1923C21.25 13.6011 20.7573 13.1346 20.1667 13.1346H1.83333C1.24268 13.1346 0.75 13.6011 0.75 14.1923C0.75 14.7835 1.24268 15.25 1.83333 15.25Z" fill="#EF1C25" stroke="#EF1C25" stroke-width="0.5"/>
</svg>
